<svg width="224" height="298" viewBox="0 0 224 298" version="1.1" xmlns="http://www.w3.org/2000/svg" xmlns:xlink="http://www.w3.org/1999/xlink">
<title>XLS</title>
<desc>Created using Figma</desc>
<g id="Canvas" transform="translate(-352 362)">
<g id="XLS">
<g id="sql">
<g id="Vector">
<use xlink:href="#path0_fill" transform="translate(352 -362)" fill="#257E4E"/>
</g>
<g id="Vector">
<use xlink:href="#path1_fill" transform="translate(500.945 -362)" fill="#38B06F"/>
</g>
</g>
<g id="XLS">
<use xlink:href="#path2_fill" transform="translate(410 -233)" fill="#FFFFFF"/>
</g>
</g>
</g>
<defs>
<path id="path0_fill" d="M 3.66211e-07 17.873C 3.66211e-07 8.001 8.001 3.05176e-07 17.873 3.05176e-07L 148.945 3.05176e-07L 223.418 62.557L 223.418 280.017C 223.418 289.889 215.417 297.89 205.545 297.89L 17.873 297.89C 8.001 297.89 3.66211e-07 289.889 3.66211e-07 280.017L 3.66211e-07 17.873Z"/>
<path id="path1_fill" d="M -7.56836e-06 3.05176e-07L -7.56836e-06 44.684C -7.56836e-06 54.556 8.00101 62.557 17.873 62.557L 74.472 62.557"/>
<path id="path2_fill" d="M 26.18 41.5L 38.78 23.44C 39.27 22.74 39.55 21.9 39.55 21.06C 39.55 18.96 37.73 17 35.49 17C 34.16 17 32.9 17.63 32.13 18.75L 21.14 34.36L 10.22 18.75C 9.45 17.63 8.19 17 6.86 17C 4.34 17 2.8 19.17 2.8 21.27C 2.8 22.11 3.08 22.81 3.57 23.44L 16.17 41.5L 3.57 59.56C 3.01 60.33 2.8 61.17 2.8 61.94C 2.8 64.04 4.62 66 6.86 66C 8.19 66 9.45 65.37 10.22 64.25L 21.14 48.64L 32.13 64.25C 32.9 65.37 34.16 66 35.49 66C 37.66 66 39.55 64.04 39.55 61.94C 39.55 61.1 39.27 60.33 38.78 59.56L 26.18 41.5ZM 67.6528 66C 69.8928 66 71.7828 64.18 71.7828 61.94C 71.7828 59.63 69.8928 57.81 67.6528 57.81L 53.3728 57.81L 53.3728 21.06C 53.3728 18.82 51.5528 17 49.3128 17C 47.0028 17 45.1828 18.82 45.1828 21.06L 45.1828 61.94C 45.1828 64.18 47.0028 66 49.3128 66L 67.6528 66ZM 93.4801 35.48C 90.7501 34.36 88.0901 33.1 88.0901 29.67L 88.0901 29.39C 88.1601 26.87 90.8201 25.12 94.2501 25.12L 94.6701 25.12C 95.9301 25.19 97.3301 25.68 98.3801 26.52C 99.1501 27.08 99.9901 27.29 100.83 27.29C 102.09 27.29 103.28 26.73 104.12 25.68C 104.68 24.98 104.96 24.07 104.96 23.23C 104.96 22.04 104.4 20.85 103.35 20.01C 100.9 18.19 97.8901 17 94.9501 16.93L 94.3201 16.93C 90.6801 16.93 87.2501 18.12 84.7301 20.08C 81.7201 22.32 80.1101 25.54 79.9701 29.11L 79.9701 29.67C 79.9701 35.97 83.6101 40.52 90.8201 43.11L 91.1001 43.25C 93.7601 44.02 99.8501 46.89 100.06 50.11L 100.06 50.39C 100.06 52.28 99.2901 54.03 97.8901 55.43C 96.4201 56.9 94.3901 57.67 91.9401 57.67L 91.5901 57.67C 88.7201 57.6 86.3401 56.06 85.2201 53.61C 84.5201 52.07 82.9801 51.23 81.4401 51.23C 80.8801 51.23 80.3201 51.3 79.7601 51.58C 78.2201 52.28 77.3801 53.75 77.3801 55.29C 77.3801 55.85 77.4501 56.48 77.7301 57.04C 80.1801 62.29 85.3601 65.65 91.3101 65.86L 91.8701 65.86C 96.4901 65.86 100.69 64.18 103.77 61.1C 106.57 58.3 108.18 54.45 108.18 50.39L 108.18 49.69C 107.76 40.03 95.5801 36.11 93.4801 35.48Z"/>
</defs>
</svg>
